%YAML 1.1
%TAG !u! tag:unity3d.com,2011:
--- !u!1045 &1
EditorBuildSettings:
  m_ObjectHideFlags: 0
  serializedVersion: 2
  m_Scenes:
  - enabled: 1
    path: Assets/ArRobot/Scenes/_boot.unity
    guid: 8efcc2659dcf8be4a97dfc4649d3b62f
  m_configObjects: {}
